WSOMAIN
zip
both
Upload
wsomain

:

Monday_WSO_FTP
YYYYMMDD
401
both
Upload
401_Full

:

Monday_WSO_FTP
WSO
403
both
Upload
403_new

:

Monday_WSO_FTP
WSOMAIN
txt
both
Upload
wsomain

:

Monday_WSO_FTP
YYYYMMDD
funds
both
Upload
FEDFunds

:
_FED
FedFunds_FTP
YYYYMMDD
txt
both
Upload
FTP_Daily_Rates

:
_Rates
xrates_FTP
YYYYMMDD
683
both
Upload
FTP_683_MyWCAEOD

:

MyWCAEOD_FTP
YYYYMMDD
623
both
Upload
623_EOD

:

EODV2_P2_FTP
YYYYMMDD
610
both
Upload
610_Marvin_Palmer

:

EODt610_FTP
YYYYMMDD
txt
both
Upload
txt_Marvin_Palmer

:

EODt610_FTP
YYYYMMDD
639
both
Upload
639_GB_EOD

:

EODv2_P2_FTP
YYMMDD
902
both
Upload
902_639_GB_EOD

:

EODv2_P2_FTP
YYYYMMDD
653
both
Upload
653_EOD

:

EODv2_FTP
YYYYMMDD
610
both
Upload
610_Reuters

:

EODt610_FTP
YYYYMMDD
620
both
Upload
Mergent_620_EOD_nonex_USCA

:

EODt620_FTP
YYYYMMDD
610
both
Upload
610_Klers

:

EODt610_FTP
YYYYMMDD
610
both
Upload
610_US_CA

:

EODt610_FTP
YYYYMMDD
652
both
Upload
652_EOD

:
_new
EODv2_FTP
YYYYMMDD
631
both
Upload
631_EOD

:

EODv2_FTP
YYYYMMDD
txt
both
Upload
186_PWC_Conversion

:
_Conversion
EODv2_FTP
YYYYMMDD
txt
both
Upload
186_PWC_Interest

:
_Interest_Payment
EODv2_FTP
YYYYMMDD
txt
both
Upload
186_PWC_PWC_FIX

:
_PWC_FIXED_INTEREST
EODv2_FTP
YYYYMMDD
txt
both
Upload
186_PWC_Redemption

:
_Redemption
EODv2_FTP
YYYYMMDD
txt
both
Upload
DirDeals_627_EOD

:

EODt620_FTP
YYYYMMDD
610
both
Upload
610_eod

:

EODt610_FTP
YYYYMMDD
626
both
Upload
626_EOD

:

EODV2_P2_FTP
YYYYMMDD
622
both
Upload
622_EOD

:

EODt620_FTP
edidata
txt
both
Upload
edidata
txt

:

EODt620_FTP
YYYYMMDD
620
both
Upload
EODt620

:

EODt620_FTP
YYYYMMDD
643
both
Upload
643_EOD

:

EODv2_FTP
YYYYMMDD
620
both
Upload
620_EOD_Africa

:

EODt620_FTP
YYYYMMDD
646
both
Upload
646_eod_markit

:

MyWCAEOD_FTP
YYYYMMDD
610
both
Upload
610_US_CA

:

EODt610_FTP
YYYYMMDD
635
both
Upload
635_EOD

:

EODv2_FTP
YYMMDD
639
both
Upload
639_EOD

:

EODv2_P2_FTP
YYMMDD
902
both
Upload
902_markit_eod
AL
:

EODv2_P2_FTP
YYMMDD
625
both
Upload
625_full
AL
:

EODV2_P2_FTP
YYYYMMDD
628
both
Upload
628_EOD

:

EODV2_P2_FTP
YYYYMMDD
624
both
Upload
624_eod

:

EODV2_P2_FTP
YYYYMMDD
620
both
Upload
620_eod

:

EODt620_FTP
YYYYMMDD
645
both
Upload
645_EOD

:

MyWCAEOD_FTP
YYYYMMDD
645
both
Upload
645_UF_EOD

:

MyWCAEOD_FTP
YYYYMMDD
645
both
Upload
645_UF_EOD

:

MyWCAEOD_FTP
YYYYMMDD
620
both
Upload
620_sgardgl

:

EODt620_FTP
YYYYMMDD
602
both
Upload
602_eod

:

EODv2_FTP
YYYYMMDD
617
both
Upload
617_Daily

:

EODv2_FTP
YYYYMMDD
610
both
Upload
610_ValueLink

:

EODt610_FTP

txt
both
Upload
Upload
EODt610
YYYYMMDD
619
both
Upload
619_EOD

:

EODv2_FTP
YYYYMMDD
638
both
Upload
638_EOD

:

EODt620_FTP
YYYYMMDD
627
both
Upload
627_EOD

:

EODv2_P3_FTP
YYYYMMDD
620
both
Upload
620_NOT_US

:

EODt620_FTP
YYMMDD
619
both
Upload
214_FACTSET

:

EODv2_FTP
YYYYMMDD
600
both
Upload
600_EOD

:

EODv2_FTP
YYYYMMDD
631
both
Upload
31_Deshaw

:

EODv2_FTP
YYYYMMDD
632
both
Upload
632_Deshaw

:

EODv2_FTP
YYYYMMDD
647
both
Upload
620_level

:

EODt620_FTP
YYYYMMDD
620
both
Upload
620_ravenpack

:

EODt620_FTP
YYMMDD
661
both
Upload
661_EOD

:

EODv2_P3_FTP
YYYYMMDD
610
both
Upload
610_statpro

:

EODt610_2_FTP
YYYYMMDD
620
both
Upload
620_msci_NEW
new_
:

EODt620_FTP
YYYYMMDD
620
both
Upload
620_Kirchberg

:

EODv2_P3_FTP
YYYYMMDD
627
both
Upload
627_markit

:

EODt620_FTP
YYYYMMDD
620
both
Upload
620_firststate

:

EODt620_FTP
YYYYMMDD
619
both
Upload
619_NL

:

EODv2_FTP
YYMMDD
902
both
Upload
mornstar_902
AL
:

EODv2_FTP
YYYYMMDD
619
both
Upload
619_AU

:

EODv2_FTP
YYYYMMDD
620
both
Upload
620_Carryquote

:

EODt620_2_FTP
YYYYMMDD
620
both
Upload
620_NBCUniversal

:

EODt620_2_FTP
YYMMDD
f04
both
Upload
F04_EOD

:

EODv2_P3_FTP
YYYYMMDD
634
both
Upload
634_INVESTT_EOD

:

MyWCAEOD_FTP
YYYYMMDD
642
both
Upload
mornstar_642

:

EODv2_P2_FTP
YYYYMMDD
620
both
Upload
620_axaf

:

EODt620_2_FTP
YYYYMMDD
620
both
Upload
620_orbis

:

MorningOps_FTP
1
YYMMDD
600
both
Upload
600_FULL
AL
:

EODv2_FTP
YYYYMMDD
620
both
Upload
620_div

:

EODt620_FTP
YYYYMMDD
620
both
Upload
620_fortis

:

EODt620_FTP
YYYYMMDD
620
both
Upload
620_US

:

EODt620_FTP
YYYYMMDD
txt
both
Upload
630_fortis_trial

:

EODt620_FTP
YYYYMMDD
630
both
Upload
630_fortis_trial

:

EODt620_FTP
YYYYMMDD
610
both
Upload
statpro

:

EODt610_2_FTP
YYYYMMDD
620
both
Upload
620_delta

:

EODt620_FTP
YYYYMMDD
610
both
Upload
610_Fides

:

EODt610_2_FTP
YYYYMMDD
620
both
Upload
620_Quad

:

EODt620_2_FTP
YYYYMMDD
619
both
Upload
619_GB

:

EODv2_FTP
YYYYMMDD
620
both
Upload
620_cantors

:

EODt620_2_FTP
YYYYMMDD
662
both
Upload
mornstar_662

:

EODv2_P2_FTP
YYYYMMDD
611
both
Upload
611_msci

:

EODt610_2_FTP
YYYYMMDD
620
both
Upload
620_msci_EOD

:

EODt620_FTP
YYYYMMDD
614
both
Upload
614_EOD

:

EODv2_FTP
YYYYMMDD
620
both
Upload
620_HHT

:

EODv2_P3_FTP
YYYYMMDD
620
both
Upload
620_div
DIV_
:

EODt620_FTP
YYYYMMDD
610
both
Upload
610_sim_162

:

EODt610_2_FTP
YYYYMMDD
620
both
Upload
620_CMC

:

EODv2_P3_FTP
YYYYMMDD
611
both
Upload
611_Imagsoft

:

EODt610_2_FTP
YYYYMMDD
632
both
Upload
632_Deshaw

:

EODv2_FTP
YYYYMMDD
610
both
Upload
610_162_EOD

:

EODt610_2_FTP
YYYYMMDD
703
both
Upload
703_EOD

:

EODv2_FTP
YYMMDD
641
both
Upload
641_EOD

:

EODv2_P3_FTP
YYYYMMDD
620
both
Upload
620_fr

:

EODt620_FTP
YYYYMMDD
619
both
Upload
619_no_us_ca_eod

:

EODv2_FTP
YYYYYMMDD
620
both
Upload
620_Nordea

:

EODt620_FTP
YYYYMMDD
610
both
Upload
statpro_global

:

EODt610_2_FTP
YYYYMMDD
620
both
Upload
620_Ttint_181

:

EODt620_FTP
YYYYMMDD
627
both
Upload
627_US

:

EODv2_P3_FTP
YYYYMMDD
610
both
Upload
EODt610_2_FTP

:

EODt610_2_FTP
YYYYMMDD
663
both
Upload
mornstar_663

:

EODv2_P2_FTP
YYYYMMDD
620
both
Upload
620_ravenpack

:

EODt620_FTP
YYMMDD
644
both
Upload
644_EOD

:

EODv2_P3_FTP
YYYYMMDD
610
both
Upload
610_Fides

:

EODt610_FTP
YYYYMMDD
658
both
Upload
mornstar_658

:

EODv2_P2_FTP
YYYYMMDD
620
both
Upload
620_singercm

:

EODt620_2_FTP
YYYYMMDD
620
both
Upload
620_gglobal

:

EODt620_FTP
YYMMDD
620
both
Upload
215_EDAILY

:

EODv2_FTP
YYYYMMDD
620
both
Upload
620_jse

:

EODt620_FTP
YYYYMMDD
620
both
Upload
620_savanet

:

EODt620_FTP
YYYYMMDD
txt
both
Upload
610_not_US_CA

:

EODt610_2_FTP
YYYYMMDD
620
both
Upload
214_factset_620

:

EODt620_2_FTP
YYYYMMDD
690
both
Upload
p690

:

MyWCAEOD_FTP
YYYYMMDD
693
both
Upload
p693

:

MyWCAEOD_FTP
YYYYMMDD
zip
both
Upload
620_loose

:
_620
EODt620_2_FTP
YYYYMMDD
611
both
Upload
627_EOD_GB

:

EODt610_FTP
YYYYMMDD
611
both
Upload
fortis_EOD_GB

:

EODt610_FTP
YYYYMMDD
620
both
Upload
620_CA

:

EODt620_2_FTP
YYYYMMDD
620
both
Upload
620_erlanger

:

EODt620_2_FTP
YYYYMMDD
512
both
Upload
512_EOD

:

EODv2_FTP
YYYYMMDD
690
both
Upload
234_port

:

EODV2_P3_FTP
YYYYMMDD
txt
both
Upload
SGSSE_Splits

:

MyWCAEOD_FTP
YYYYMMDD
620
both
Upload
620_eod

:

EODt620_FTP
YYYYMMDD
620
both
Upload
620_Numis

:

EODt620_FTP
YYYYMMDD
txt
both
Upload
wvb_eod
WCA_
:

EODt620_FTP
YYYYMMDD
642
both
upload
642_iress

:

642_iress
YYYYMMDD
620
both
Upload
620_erlanger

:

EODt620_2_FTP
YYYYMMDD
514
both
Upload
514_EOD

:

EODv2_FTP
514_DAY
zip
both
Upload
514_ZIP

:

EODv2_FTP
YYYYMMDD
611
both
Upload
611_eod

:

EODt610_2_FTP
YYYYMMDD
620
both
Upload
234_port_620

:

234_port_620_FTP
YYYYMMDD
611
both
Upload
611_EOD

:

EODt610_2_FTP
YYYYMMDD
619
both
Upload
213_djindexes

:

EODt620_2_FTP
YYYYMMDD
690
both
Upload
234_port

:

EODV2_P3_FTP
CNSGSE_List
txt
both
Upload
SGSSE_List

:

MyWCAEOD_FTP
YYYYMMDD
645
both
Upload
214_factset

:

EODt620_2_FTP
YYYYMMDD
620
both
Upload
Client_Port_217_alert

:
_ALERT
EODv2_P2_FTP
YYYYMMDD
txt
both
Upload
wfiport_eod_txt

:

EOD_WFI_FTP
YYYYMMDD
620
both
Upload
217_latenotice

:

EODv2_P2_FTP
YYYYMMDD
611
both
Upload
MSCI_611_EOD

:

EODt610_2_FTP
YYYYMMDD
620
both
Upload
620_EOD_GB

:

EODt620_2_FTP
YYYYMMDD
514
both
Upload
514_ITA_EOD

:

EODv2_FTP
YYYYMMDD
610
both
Upload
610_EOD_SG135

:

EODt610_2_FTP
YYYYMMDD
610
both
Upload
EODt610
YYYYMMDD
610
both
Upload
610_klers

:

EODt610_FTP
YYYYMMDD
610
both
Upload
610_klers

:

EODt610_FTP
YYYYMMDD
620
both
Upload
FTP_620_eod_ca

:

EODt620_2_FTP
YYYYMMDD
620
both
Upload
620_EOD_ActivF

:

EODt620_2_FTP
YYYYMMDD
645
both
Upload
Port_217_645

:

EODV2_P2_FTP
YYYYMMDD
652
both
Upload
652_alacra

:

EODv2_P3_FTP
YYYYMMDD
txt
both
upload
Client_Port_212

:

EODt620_Factset_FTP
YYYYMMDD
620
both
Upload
620_EOD_BR

:

EODt620_2_FTP
YYYYMMDD
665
both
Upload
665_eod

:

EODv2_FTP
YYYYMMDD
661
both
Upload
661_eod

:

EODt620_2_FTP
YYYYMMDD
640
both
Upload
640_EOD

:

EODv2_FTP
YYYYMMDD
501
both
Upload
501_EOD

:

EODv2_FTP
YYYYMMDD
505
both
Upload
505_EOD

:

EODv2_FTP
YYYYMMDD
702
both
Upload
702_EOD

:

EODt620_FTP
YYYYMMDD
620
both
Upload
237_sungard_620

:

sungard_620_FTP
YYYYMMDD
txt
both
Upload
My_Wca_Webload_3_FTP

:
_BBC
My_Wca_Webload_FTP_3
YYYYMMDD
txt
both
Upload
My_Wca_Webload_3_FTP

:
_BBE
My_Wca_Webload_FTP_3
YYYYMMDD
txt
both
Upload
My_Wca_Webload_3_FTP

:
_BBCC
My_Wca_Webload_FTP_3
YYYYMMDD
txt
both
Upload
My_Wca_Webload_3_FTP

:
_BBEC
My_Wca_Webload_FTP_3
YYYYMMDD
627
both
Upload
627_EOD_GB

:

EODt620_FTP
YYYYMMDD
620
both
Upload
Port_217_alert_Pay

:
_ALERT
EODV2_P2_FTP
YYYYMMDD
514
both
Upload
514_GB_IE

:

EODv2_FTP
YYYYMMDD
680
both
upload
OTCCA

:

EOD_OTCCA_FTP
YYYYMMDD
683
both
upload
OTCCA

:

EOD_OTCCA_FTP
YYYYMMDD
689
both
upload
OTCCA

:

EOD_OTCCA_FTP
YYYYMMDD
601
both
Upload
601_EOD

:

EODt610_2_FTP
YYYYMMDD
618
both
Upload
618_EOD

:

EODt610_2_FTP
YYYYMMDD
516
both
Upload
516_EOD

:

EODv2_FTP
YYYYMMDD
zip
both
Upload
645_loose

:
_645
MyWCAEOD
YYYYMMDD
620
both
Upload
213_djindexes

:

EODt620_2_FTP
YYYYMMDD
690
both
Upload
234_port

:

MyWCAEOD_FTP
YYYYMMDD
693
both
Upload
234_port

:

MyWCAEOD_FTP
YYYYMMDD
689
both
Upload
234_port

:

MyWCAEOD_FTP
YYYYMMDD
619
both
Upload
619_CA_EOD

:

EODv2_FTP
YYYYMMDD
txt
both
Upload
231_Prices_JSE

:
_MKTCAP
231_Prices_JSE
YYYYMMDD
307
both
Upload
UDR_307
AL
:

UDRWCA_FTP

zip
both
Upload
FTP_UDR
301
:
_FULL
FTP_UDR
YYMMDD
306
both
Upload
UDR_306

:

UDRWCA_FTP
YYYYMMDD
308
both
Upload
UDR_308

:

UDRWCA_FTP
YYYYMMDD
txt
both
Upload
Custom_General_Feed01
UD
:

UDRWCA_FTP
YYMMDD
902
both
Upload
902
AL
:

UDRWCA_FTP
YYMMDD
txt
both
Upload
UDR_UD
UD
:

Inc2
YYMMDD
305
both
Upload
UDR_305

:

UDRWCA_FTP

zip
both
Upload
FTP_UDR_320
302
:
_FULL
FTP_UDR_320
YYYYMMDD
610
both
Upload
UDR_610

:

UDRWCA_FTP
YYMMDD
310
both
Upload
310_Full

:

UDRWCA_FTP
YYYYMMDD
123
both
upload
123_Transfer

:

123Trans_FTP
i
YYYYMMDD
zip
both
upload
WFIClientDaily_Sstream

:
_WFIDaily_Delta
WFIClientDaily_Sstream
YYYYMMDD
zip
both
Upload
AfternoonFtpSteps

:

FixedInc_1_FTP
YYYYMMDD
zip
both
upload
WFIClientDaily_Advantage

:
_WFIDaily_Delta
WFIClientDaily_Advatnage
YYYYMMDD
619
both
Upload
619i_AU

:
_AU
WCAWebload_FTP
i
YYYYMMDD
642
both
Upload
642i_markit

:

WCAWebload_FTP
i
YYYYMMDD
620
both
Upload
620i_NBCUniversal

:

WCAWebload_FTP
i

620
both
Upload
All_3_WcaWebloads
620_Investt
YYYYMMDD
620
both
Upload
620i_Investt

:

WCAWebload_t620_FTP
i
YYYYMMDD
690
both
Upload
690_EOD

:

FTP_690_EOD
YYYYMMDD
693
both
Upload
690_EOD

:

FTP_690_EOD
YYYYMMDD
693
both
Upload
690_EOD

:

FTP_690_EOD
YYYYMMDD
620
both
Upload
620i_US_CA

:

WCAWebload_t620_FTP
i
YYYYMMDD
680
both
Upload
680

:

My_Wca_Webload_FTP
i
YYYYMMDD
680
both
upload
680_inc

:

My_Wca_Webload_FTP
i
YYYYMMDD
683
both
upload
680_inc

:

My_Wca_Webload_FTP
i
YYYYMMDD
683
both
upload
680_inc

:

My_Wca_Webload_FTP
i
YYYYMMDD
683
both
upload
680_inc

:

My_Wca_Webload_FTP
i
YYYYMMDD
683
both
upload
680_inc

:

My_Wca_Webload_FTP
i
YYYYMMDD
689
both
upload
680_inc

:

My_Wca_Webload_FTP
i
YYYYMMDD
642
both
Upload
642i_globalts

:

WCAWebload_FTP
i
YYYYMMDD
619
both
Upload
619i_NL

:
_NL
WCAWebload_FTP
i
YYYYMMDD
670
both
Upload
670_Daily

:
_ALERT
WCAWebload_FTP_3
YYYYMMDD
670
both
Upload
670_Daily_2

:
_ALERT
WCAWebload_FTP_3
YYYYMMDD
680
both
Upload
680_inc

:

My_Wca_Webload_FTP
i
YYYYMMDD
txt
both
Upload
upload
234_680

:

234_FTP
YYYYMMDD
txt
both
Upload
t15022_Inc

:

t15022_Inc_FTP
i
YYYYMMDD
680
both
upload
MyWCAEOD_FTP

:

MyWCAEOD_FTP
YYYYMMDD
680
both
upload
MyWCAEOD_FTP

:

MyWCAEOD_FTP
YYYYMMDD
683
both
upload
MyWCAEOD_FTP

:

MyWCAEOD_FTP
YYYYMMDD
683
both
upload
MyWCAEOD_FTP

:

MyWCAEOD_FTP
YYYYMMDD
689
both
upload
MyWCAEOD_FTP

:

MyWCAEOD_FTP
YYYYMMDD
680
both
upload
MyWCAEOD_FTP

:

MyWCAEOD_FTP
YYYYMMDD
689
both
upload
MyWCAEOD_FTP

:

MyWCAEOD_FTP
YYYYMMDD
690
both
upload
MyWCAEOD_FTP

:

MyWCAEOD_FTP
YYYYMMDD
693
both
upload
MyWCAEOD_FTP

:

MyWCAEOD_FTP
YYYYMMDD
100
both
Upload
IPO_100i

:

WCAWebload_FTP
i
YYYYMMDD
100
both
Upload
IPO_100i_2

:

WCAWebload_FTP
i
YYYYMMDD
txt
both
Upload
690i

:

MyWCAEOD_FTP
YYYYMMDD
txt
both
Upload
693i

:

MyWCAEOD_FTP
YYYYMMDD
690
both
Upload
690i

:

My_Wca_Webload_FTP
i
YYYYMMDD
693
both
Upload
693i

:

My_Wca_Webload_FTP
i
YYYYMMDD
693
both
Upload
693i

:

My_Wca_Webload_FTP
i
YYYYMMDD
619
both
Upload
619i_GB

:
_GB
WCAWebload_FTP
i
YYYYMMDD
665
both
Upload
665

:

My_Wca_Webload_FTP
i
YYYYMMDD
618
both
Upload
618i_global

:

WCAWebload_FTP
i
YYYYMMDD
620
both
620i_Inc

:

WCAWebload_t620_FTP
i
YYYYMMDD
619
both
Upload
619i_CA

:
_CA
WCAWebload_FTP
i
YYYYMMDD
620
both
upload
620_srccap

:

WcaWebload_FTP
i

620
both
Upload
All_3_WcaWebloads
620_Inc
YYYYMMDD
620
both
Upload
620i_CarryQuote

:

WCAWebload_FTP
i
YYYYMMDD
653
both
Upload
FTP_WCA_653i

:

WCADaily_FTP
i
YYYYMMDD
689
both
Upload
my689

:

My_Wca_Webload_3
YYYYMMDD
txt
both
Upload
693i

:

MyWCAEOD_FTP
YYYYMMDD
680
both
Upload
my680

:

My_Wca_Webload_3
YYYYMMDD
680
both
Upload
my680

:

My_Wca_Webload_3
YYYYMMDD
151
both
Upload
151_IXCON

:
_IXCON
15022_Steps_4_FTP
YYYYMMDD
610
both
Upload
610_inc

:

WCAWebload_FTP
i
YYYYMMDD
683
both
Upload
683_inc

:

My_Wca_Webload_FTP
i
YYYYMMDD
evi
both
Upload
EVI_FinInf

:

WCAWebload_FTP
i
YYYYMMDD
620
both
Upload
620i_otcmarkets

:

WCAWebload_t620_FTP
i
YYYYMMDD
103
both
Upload
IPO_103i

:

WCAWebload_FTP
i
YYYYMMDD
639
both
Upload
639_Inc

:

WCAWebload_FTP
i
YYYYMMDD
608
both
Upload
608i_Fid

:

Fidelity_FTP
i
YYYYMMDD
618
both
Upload
618i_Fid

:

Fidelity_FTP
i
YYYYMMDD
637
both
Upload
637_monthly

:

Monthly_1stTue_FTP
YYYYMMDD
zip
both
Upload
GBSOS_monthly

:

GBSOS_monthly
YYYYMMDD
636
both
Upload
636_monthly

:

Monthly_1stTue_FTP
YYYYMMDD
626
both
Upload
Monthly_LastDay

:

Monthly_LastDay_FTP
YYYYMMDD
zip
both
Upload
101_Full

:

Monthly_1stDay_FTP
YYYYMMDD
630
both
Upload
Fortis_167_Port

:

TuesdayMorning_FTP
EDI_621
txt
both
Upload
621_Hugin

:

TuesdayMorning_FTP
FE_Full
zip
both
Upload
FE_Full

:

TuesdayMorning_FTP

zip
both
FE_Full

:

TuesdayMorning_FTP
YYYYMMDD
f03
both
Upload
f03_Weekly

:

TuesdayMorning_FTP
YYMMDD
zip
both
Upload
653_CarryQoute

:

TuesdayMorning_FTP
YYMMDD
f03
both
Upload
f03_Markit
AL
:

TuesdayMorning_FTP
YYYYMMDD
hol
both
Upload
FinHols_Weekly

:

Wednesday_Morning_Ops_FTP
YYYYMMDD
txt
both
Upload
MorningOps_FTP

:
_BOND
MorningOps_FTP
YYYYMMDD
f10
both
Upload
F10_Morning_All
HOLIDAYS_
:

MorningOps_FTP
YYMMDD
615
both
Upload
MorningOps

:

MorningOps_FTP
YYYYMMDD
653
both
Upload
MorningOps

:

MorningOps_FTP
YYYYMMDD
txt
both
Upload
MorningOps

:
_WAREX
MorningOps_FTP
YYMMDD
902
both
Upload
900
AL
:

MorningOps_FTP
YYMMDD
903
both
Upload
903
AL
:

MorningOps_FTP
YYMMDD
902
both
Upload
903
AL
:

MorningOps_FTP
YYMMDD
902
both
Upload
902
AL
:

MorningOps_FTP
YYMMDD
902
both
Upload
statpro902
AL
:

MorningOps_FTP
YYYYMMDD
txt
both
Upload
2012_Nasdaq_sedol

:

2012_Nasdaq_sedol_FTP
i
15022
txt
both
Upload
15022_2012_Crsp

:
_EQ_EOD
15022_Steps_2_FTP
YYYYMMDD
txt
both
Upload
15022_2012_Crsp

:
_EQ564
15022_Steps_2_FTP
YYYYMMDD
txt
both
Upload
15022_2012_Crsp

:
_EQ568
15022_Steps_2_FTP
YYYYMMDD
txt
both
Upload
t15022_inc

:

t15022_inc_FTP
i
YYYYMMDD
txt
both
upload
coretexa_233
edi_
:
_235959
t15022_inc_FTP
i
YYYYMMDD
txt
both
Upload
coretexa_233
edi_
:
_235959
Cortexa_hist_FTP
YYYYMMDD
txt
both
Upload
t15022_inc

:

t15022_inc_FTP
i
YYYYMMDD
txt
both
Upload
t15022_inc

:

t15022_inc_FTP
i
15022
txt
both
Upload
15022_2012_Markit

:
_EQ_EOD
15022_2012_Markit_FTP
15022_EQ_EOD
txt
both
Upload
15022_2012_Markit

:

15022_2012_Markit
YYYYMMDD
txt
both
Upload
Citihfs
15022_EQ_
:

Citihfs_FTP
1
YYYYMMDD
txt
both
Upload
GB_EQ_08_sedol

:
_EQ564_ACTV
15022_Steps_FTP
15022
txt
both
Upload
15022_2008_Crsp

:
_EQ_EOD
15022_Steps_2_FTP
YYYYMMDD
txt
both
Upload
15022_2008_Crsp

:
_EQ564
15022_Steps_2_FTP
YYYYMMDD
txt
both
Upload
15022_2008_Crsp

:
_EQ568
15022_Steps_2_FTP
YYYYMMDD
txt
both
Upload
mwace

:
_EQ564_ACTV
15022_Steps_3_FTP
YYYYMMDD
txt
both
Upload
eq_11_isin

:
_MT564
15022_Steps_4_FTP
YYYYMMDD
txt
both
Upload
eq_11_isin

:
_MT564
15022_Steps_4_FTP
YYYYMMDD
txt
both
Upload
Crsp_EOD

:
_EQ568
15022_Steps_2_FTP
YYYYMMDD
txt
both
Upload
15022_2012_Socgen
edi_
:
_MD564
15022_2012_Socgen_FTP
YYYYMMDD
txt
both
Upload
t15022_inc_FTP
edi_
:
_153000
t15022_inc_FTP
i
YYYYMMDD
txt
both
Upload
t15022_inc

:

t15022_inc_FTP
i
YYYYMMDD
txt
both
Upload
2012_FNZ_Isin
edi_
:
_EOD
2012_FNZ_Isin_FTP
15022_EQ_EOD
txt
both
Upload
Markit_EQ06_EOD

:

15022_Steps_Markit_FTP
YYYYMMDD
txt
both
Upload
EQ_GB

:
_EQ564_ACTV
15022_Steps_2_FTP
YYYYMMDD
txt
both
Upload
eq_08_isin

:
_EQ15022
15022_Steps_5_FTP
YYYYMMDD
txt
both
Upload
2011_Danske2

:
_EQ15022
15022_Steps_5_FTP
YYYYMMDD
txt
both
Upload
ISO_DAILY

:
_15022SPLR
15022_Steps_FTP
YYYYMMDD
txt
both
Upload
15022_Crsp

:
_EQ564
15022_Crsp_FTP
YYYYMMDD
txt
both
Upload
15022_Crsp

:
_EQ568
15022_Crsp_FTP
YYYYMMDD
txt
both
Upload
15022_Crsp

:

15022_Crsp_FTP
YYYYMMDD
zip
ALACRA
upload
Alacra
2155_
:
_001
Alacra_FTP
YYYYMMDD
120
both
Upload
120_increment1

:
_1
MySMF4_1200_FTP
YYYYMMDD
120
both
Upload
FTP_120_Daily

:

MySMF4_1800_FTP
YYMMDD
txt
both
Upload
NC_daily
CB
:

SMF4_FTP_1
YYYYMMDD
122
both
Upload
FTP_122_MySMF4

:

MySMF4_1800_FTP
YYYYMMDD
ml
both
Upload
mc_Daily

:

SMF4_FTP_1
YYYYMMDD
101
both
Upload
FTP_101_Daily

:

SMF4_FTP_1
YYYYMMDD
129
both
Upload
129_daily

:

SMF4_FTP_1

zip
both
Upload
SMF_Files

:

SMF_inc_FTP
YYYYMMDD
122
both
Upload
FTP_122i_MySMF4

:
_1
MySMF4_1200_FTP
YYMMDD
010
both
Upload
FTP_010_Daily

:

MySMF4_1800_FTP
YYYYMMDD
114
both
Upload
FTP_014_Daily

:

MySMF4_1800_FTP
YYYYMMDD
001
both
Upload
FTP_001

:

MySMF4_1800_FTP
YYYYMMDD
002
both
Upload
FTP_002_Daily

:

MySMF4_1800_FTP
YYYYMMDD
121
both
Upload
FTP_121i_MySMF4

:
_2
MySMF4_1800_FTP
YYYYMMDD
122
both
Upload
FTP_122i_MySMF4

:
_2
MySMF4_1800_FTP
YYYYMMDD
001
both
Upload
FTP_001_Daily

:

MySMF4_1800_FTP
YYYYMMDD
002
both
Upload
FTP_001_NEW

:

MySMF4_1800_FTP
YYYYMMDD
121
both
Upload
FTP_121i_MySMF4

:
_1
MySMF4_1200_FTP
YYYYMMDD
121
both
Upload
FTP_121i_MySMF4

:
_2
Inc2
YYMMDD
021
both
Upload
FTP_021_Daily

:

MySMF4_1800_FTP
YYYYMMDD
130
both
Upload
130_daily

:

SMF4_FTP_1
YYYYMMDD
120
both
Upload
FTP_120i_MySMF4

:
_2
MySMF4_1800_FTP
YYYYMMDD
132
both
Upload
132_Daily

:

MySMF4_1800_FTP
YYYYMMDD
604
both
Upload
WCA_604_8CNTRY

:

WCADaily_FTP
YYYYMMDD
610
both
Upload
WCA_610_NoUSX

:

WCADaily_FTP
YYYYMMDD
txt
both
Upload
WFIfeed_Daily_Agency

:

WCADaily_FTP
YYYYMMDD
txt
both
Upload
WFI_Interest

:

WCADaily_FTP
YYYYMMDD
txt
both
Upload
WFIfeed_Daily_Bond_Full

:

Inc2_FTP
YYYYMMDD
txt
both
Upload
UDR_Daily

:
_DPRCP
UDREOD_FTP
YYYYMMDD
txt
both
Upload
UDR_Daily

:
_DPRCP
UDREOD_FTP
YYYYMMDD
txt
both
Upload
UDR_ISSUR

:
_ISSUR
UDREOD_FTP
YYYYMMDD
txt
both
Upload
UDR_SEDOL

:
_SEDOL
UDREOD_FTP
YYYYMMDD
txt
both
Upload
UDR_DRCHG

:
_DRCHG
UDREOD_FTP
YYYYMMDD
txt
both
Upload
UDR_SCMST

:
_SCMST
UDREOD_FTP
YYYYMMDD
txt
both
Upload
UDR_SCEXH

:
_SCEXH
UDREOD_FTP
YYYYMMDD
txt
both
Upload
UDR_RD

:
_RD
UDREOD_FTP
YYYYMMDD
txt
both
Upload
WFIfeed_Daily_Lookup

:
_LOOKUP
WCADaily_FTP
YYYYMMDD
613
both
Upload
WCA_613

:

WCADaily_FTP
YYYYMMDD
txt
both
Upload
WFIfeed_Daily_Bond_Full

:
_BONDFULL
Inc2_FTP
YYYYMMDD
619
both
Upload
619_Africa

:

WCADaily_FTP
YYYYMMDD
604
both
Upload
WCA_604_GB_IE

:

WCADaily_FTP
YYYYMMDD
txt
both
Upload
WFIfeed_Daily_Maturity_Change
both
WFIfeed_Daily_Maturity_Change
both
WFI_Maturity_Change
both

:
_MTCHG
WCADaily_FTP
YYYYMMDD
613
both
Upload
WCA_613_US

:

WCADaily_FTP
YYYYMMDD
txt
both
Upload
WARfeed_Refdata_1

:
_COWAR
UDREOD_FTP
YYYYMMDD
txt
both
Upload
Refdata_1_Daily

:
_COWAR
UDREOD_FTP
YYYYMMDD
txt
both
Upload
Refdata_1_ISSUR

:
_SCMST
UDREOD_FTP
YYYYMMDD
txt
both
Upload
Refdata_1_SEDOL

:
_SEDOL
UDREOD_FTP
YYYYMMDD
txt
both
Upload
Refdata_1_DRCHG

:
_CWCHG
UDREOD_FTP
YYYYMMDD
txt
both
Upload
Refdata_1_SCMST

:
_ISSUR
UDREOD_FTP
YYYYMMDD
txt
both
Upload
Refdata_1_SCEXH

:
_SCEXH
UDREOD_FTP
YYYYMMDD
txt
both
Upload
Refdata_1_RD

:
_RD
UDREOD_FTP
YYYYMMDD
txt
both
Upload
Refdata1_Event

:
_ISCHG
WCADaily_FTP
604_day
zip
both
Upload

:

WCADaily_FTP
YYYYMMDD
620
both
Upload
WCA_620_Mornstar_Daily

:

WCADaily_t620_FTP
YYYYMMDD
611
both
Upload
WCA_611_US

:

WCADaily_FTP
YYMMDD
txt
both
Upload
Refdata2_Event

:

WCADaily_FTP
YYYYMMDD
616
both
Upload
WCA_616

:

WCADaily_FTP
YYYYMMDD
611
both
Upload
WCA_611

:

WCADaily_FTP
YYMMDD
641
both
Upload
641_Nordic_Handelsb
AL
:

WCADaily_FTP
YYYYMMDD
403
both
Upload
WCA_403_US

:

WCADaily_FTP
YYYYMMDD
653
both
Upload
FTP_WCA_653i

:

WCADaily_FTP
YYYYMMDD
txt
both
Upload
WFIfeed_Daily_Schedule

:
_CPOPT
WCADaily_FTP
YYYYMMDD
txt
both
Upload
WARfeed_Refdata_2

:
_ISSUR
UDREOD_FTP
YYYYMMDD
txt
both
Upload
Refdata_2_ISSUR

:
_ISSUR
UDREOD_FTP
YYYYMMDD
txt
both
Upload
Refdata_2_SCMST

:
_SCMST
UDREOD_FTP
YYYYMMDD
txt
both
Upload
Refdata_2_SCEXH

:
_SCEXH
UDREOD_FTP
YYYYMMDD
txt
both
Upload
Refdata_2_SEDOL

:
_SEDOL
UDREOD_FTP
YYYYMMDD
txt
both
Upload
Refdata_2_WAREX

:
_WAREX
UDREOD_FTP
YYYYMMDD
txt
both
Upload
Refdata_2_WARTM

:
_WARTM
UDREOD_FTP
YYYYMMDD
txt
both
Upload
Refdata_2_RD

:
_RD
UDREOD_FTP
YYYYMMDD
610
both
Upload
610_Euro

:

WCADaily_FTP
YYMMDD
407
both
Upload
WCA_407_Full_Statpro
AL
:

WCADaily_FTP
YYYYMMDD
txt
both
Upload
WFI_Daily_REDEM

:
_REDEM
WCADaily_FTP
YYYYMMDD
604
both
Upload
WCA_604_Loose

:

WCADaily_FTP
YYYYMMDD
610
both
Upload
WCA_610

:

WCADaily_FTP
YYYYMMDD
txt
both
Upload
WFIfeed_Daily_Refdata1

:
_ISSUR
WCADaily_FTP
YYYYMMDD
611
both
Upload
WCA_611_Euro1

:

WCADaily_FTP
YYYYMMDD
txt
both
Upload
WARfeed_Full_Lookup
AL
:
_LOOKUP
WCADaily_FTP
YYYYMMDD
604
both
Upload
WCA_604_US_CA

:

WCADaily_FTP

RTF
both
Upload
CabTrans

:

CABTrans_FTP
YYYYMMDD
RTF
both
upload
32093_Cab_Transfer

:
_32092_DEXIONEQUITY
CABTrans_FTP
ed_consolidated
txt
both
Upload
MarkitDivCon

:

MarkitDivCon_FTP
